<?xml version="1.0" encoding="UTF-8" standalone="no"?>
<!-- Created with Inkscape (http://www.inkscape.org/) -->

<svg
   xmlns:dc="http://purl.org/dc/elements/1.1/"
   xmlns:cc="http://creativecommons.org/ns#"
   xmlns:rdf="http://www.w3.org/1999/02/22-rdf-syntax-ns#"
   xmlns:svg="http://www.w3.org/2000/svg"
   xmlns="http://www.w3.org/2000/svg"
   xmlns:sodipodi="http://sodipodi.sourceforge.net/DTD/sodipodi-0.dtd"
   xmlns:inkscape="http://www.inkscape.org/namespaces/inkscape"
   width="210mm"
   height="297mm"
   viewBox="0 0 210 297"
   version="1.1"
   id="svg2122"
   inkscape:version="0.92.2 (unknown)"
   sodipodi:docname="four-bar.svg">
  <defs
     id="defs2116">
    <inkscape:path-effect
       is_visible="true"
       id="path-effect5838"
       effect="spiro" />
    <inkscape:path-effect
       is_visible="true"
       id="path-effect5842"
       effect="spiro" />
    <inkscape:path-effect
       is_visible="true"
       id="path-effect5846"
       effect="spiro" />
    <inkscape:path-effect
       is_visible="true"
       id="path-effect5850"
       effect="spiro" />
    <inkscape:path-effect
       is_visible="true"
       id="path-effect5854"
       effect="spiro" />
    <inkscape:path-effect
       is_visible="true"
       id="path-effect5858"
       effect="spiro" />
    <inkscape:path-effect
       effect="spiro"
       id="path-effect5772"
       is_visible="true" />
    <inkscape:path-effect
       effect="spiro"
       id="path-effect5763"
       is_visible="true" />
  </defs>
  <sodipodi:namedview
     id="base"
     pagecolor="#ffffff"
     bordercolor="#666666"
     borderopacity="1.0"
     inkscape:pageopacity="0.0"
     inkscape:pageshadow="2"
     inkscape:zoom="4.1545455"
     inkscape:cx="454.28571"
     inkscape:cy="621.42857"
     inkscape:document-units="mm"
     inkscape:current-layer="layer1"
     showgrid="false"
     inkscape:window-width="1879"
     inkscape:window-height="1056"
     inkscape:window-x="41"
     inkscape:window-y="24"
     inkscape:window-maximized="1" />
  <metadata
     id="metadata2119">
    <rdf:RDF>
      <cc:Work
         rdf:about="">
        <dc:format>image/svg+xml</dc:format>
        <dc:type
           rdf:resource="http://purl.org/dc/dcmitype/StillImage" />
        <dc:title></dc:title>
      </cc:Work>
    </rdf:RDF>
  </metadata>
  <g
     inkscape:label="Layer 1"
     inkscape:groupmode="layer"
     id="layer1">
    <path
       style="display:inline;fill:none;fill-rule:evenodd;stroke:#000000;stroke-width:0.10583333;stroke-linecap:butt;stroke-linejoin:miter;stroke-miterlimit:4;stroke-dasharray:none;stroke-opacity:1"
       d="m 121.84697,138.57961 c 2.40876,-1.28941 4.13829,-3.78696 4.46616,-6.49938 0.0292,-0.24158 0.0472,-0.4915 -0.0244,-0.72405 -0.0358,-0.11627 -0.0944,-0.2266 -0.17802,-0.31497 -0.0836,-0.0884 -0.1931,-0.15394 -0.31263,-0.17665 -0.10302,-0.0196 -0.21091,-0.007 -0.30951,0.0287 -0.0986,0.0357 -0.18819,0.0939 -0.26625,0.16389 -0.15612,0.14003 -0.26491,0.32397 -0.37005,0.50543 -1.11461,1.92362 -2.10347,3.92066 -3.29252,5.79918 -1.18904,1.87853 -2.59877,3.65479 -4.3991,4.9592 -0.14073,0.10197 -0.28601,0.20213 -0.45025,0.25894 -0.0821,0.0284 -0.16857,0.0456 -0.25546,0.0454 -0.0869,-2e-4 -0.17429,-0.0181 -0.25203,-0.0569 -0.077,-0.0385 -0.14348,-0.097 -0.19396,-0.16668 -0.0505,-0.0697 -0.0851,-0.15043 -0.10402,-0.23441 -0.0377,-0.16795 -0.0121,-0.34582 0.0492,-0.50669 0.0803,-0.21063 0.21961,-0.39522 0.38343,-0.55004 0.16381,-0.15483 0.35203,-0.28153 0.54464,-0.39861 1.54122,-0.93689 3.37466,-1.28107 4.96481,-2.13228 z"
       id="path5761"
       inkscape:connector-curvature="0"
       inkscape:path-effect="#path-effect5763"
       inkscape:original-d="m 121.84697,138.57961 c 1.95824,-1.6536 4.20201,-3.88403 4.46616,-6.49938 0.0442,-0.43786 -0.0906,-1.0995 -0.51505,-1.21567 -0.37793,-0.10344 -0.67084,0.41884 -0.94581,0.698 -3.0936,3.14061 -5.78905,7.84488 -7.69162,10.75838 -1.90257,2.9135 -0.67246,0.41272 -0.95774,0.24738 -0.27146,-0.15733 -0.32749,-0.60405 -0.24882,-0.90778 0.11093,-0.42824 0.56322,-0.6985 0.92807,-0.94865 1.48549,-1.01848 4.01403,-1.36478 4.96481,-2.13228 z"
       sodipodi:nodetypes="caaasaaac"
       inkscape:export-xdpi="792.62"
       inkscape:export-ydpi="792.62" />
    <path
       style="display:inline;opacity:1;fill:#ffffff;fill-opacity:1;fill-rule:nonzero;stroke:#000000;stroke-width:0.10583333;stroke-linecap:round;stroke-linejoin:round;stroke-miterlimit:4;stroke-dasharray:none;stroke-opacity:1"
       d="m 117.0423,142.3792 0.44804,0.11461"
       id="path5765"
       inkscape:connector-curvature="0"
       sodipodi:nodetypes="cc"
       inkscape:export-xdpi="792.62"
       inkscape:export-ydpi="792.62" />
    <path
       sodipodi:nodetypes="cccccc"
       inkscape:connector-curvature="0"
       id="path5759"
       d="m 117.6162,142.45868 -0.23864,-0.0754 c -0.009,-0.003 -0.0183,-0.003 -0.0284,-7.9e-4 -0.0387,0.009 -0.07,0.0565 -0.07,0.10549 0,0.0374 0.0183,0.0651 0.0442,0.0719 l 0.23727,0.0745"
       style="display:inline;opacity:1;fill:#ffffff;fill-opacity:1;fill-rule:nonzero;stroke:#000000;stroke-width:0.10583333;stroke-linecap:round;stroke-linejoin:round;stroke-miterlimit:4;stroke-dasharray:none;stroke-opacity:1"
       inkscape:export-xdpi="792.62"
       inkscape:export-ydpi="792.62" />
    <path
       sodipodi:nodetypes="sccccs"
       inkscape:connector-curvature="0"
       id="path5757"
       d="m 118.21715,143.08309 c 0.14095,-0.0719 0.27051,-0.27402 0.21785,-0.42324 l -6.06487,-17.96421 c -0.10194,-0.37701 -0.85399,0.18795 -0.78878,0.3511 l 6.03398,17.88592 c 0.0605,0.16058 0.31959,0.29445 0.60182,0.15043 z"
       style="color:#000000;font-style:normal;font-variant:normal;font-weight:normal;font-stretch:normal;font-size:medium;line-height:normal;font-family:sans-serif;font-variant-ligatures:normal;font-variant-position:normal;font-variant-caps:normal;font-variant-numeric:normal;font-variant-alternates:normal;font-feature-settings:normal;text-indent:0;text-align:start;text-decoration:none;text-decoration-line:none;text-decoration-style:solid;text-decoration-color:#000000;letter-spacing:normal;word-spacing:normal;text-transform:none;writing-mode:lr-tb;direction:ltr;text-orientation:mixed;dominant-baseline:auto;baseline-shift:baseline;text-anchor:start;white-space:normal;shape-padding:0;clip-rule:nonzero;display:inline;overflow:visible;visibility:visible;opacity:1;isolation:auto;mix-blend-mode:normal;color-interpolation:sRGB;color-interpolation-filters:linearRGB;solid-color:#000000;solid-opacity:1;vector-effect:none;fill:#ffffff;fill-opacity:1;fill-rule:evenodd;stroke:#000000;stroke-width:0.10583333;stroke-linecap:round;stroke-linejoin:miter;stroke-miterlimit:4;stroke-dasharray:none;stroke-dashoffset:0;stroke-opacity:1;color-rendering:auto;image-rendering:auto;shape-rendering:auto;text-rendering:auto;enable-background:accumulate"
       inkscape:export-xdpi="792.62"
       inkscape:export-ydpi="792.62" />
    <path
       style="display:inline;opacity:1;fill:#ffffff;fill-opacity:1;fill-rule:nonzero;stroke:#000000;stroke-width:0.10583334;stroke-linecap:round;stroke-linejoin:round;stroke-miterlimit:4;stroke-dasharray:none;stroke-opacity:1"
       d="m 107.78248,135.82715 15.37776,-5.50099 v 3.42562 l -15.37776,5.50099 z"
       id="rect5748"
       inkscape:connector-curvature="0"
       sodipodi:nodetypes="ccccc"
       inkscape:export-xdpi="792.62"
       inkscape:export-ydpi="792.62" />
    <path
       sodipodi:nodetypes="ccccc"
       inkscape:connector-curvature="0"
       id="path5753"
       d="m 107.78248,135.82715 15.37776,-5.50099 -0.42508,-0.20003 -15.37776,5.50099 z"
       style="display:inline;opacity:1;fill:#ffffff;fill-opacity:1;fill-rule:nonzero;stroke:#000000;stroke-width:0.10583334;stroke-linecap:round;stroke-linejoin:round;stroke-miterlimit:4;stroke-dasharray:none;stroke-opacity:1"
       inkscape:export-xdpi="792.62"
       inkscape:export-ydpi="792.62" />
    <path
       sodipodi:nodetypes="ccccc"
       inkscape:connector-curvature="0"
       id="path5755"
       d="m 107.78248,135.82715 -0.42508,-0.20003 v 3.42562 l 0.42508,0.20003 z"
       style="display:inline;opacity:1;fill:#ffffff;fill-opacity:1;fill-rule:nonzero;stroke:#000000;stroke-width:0.10583334;stroke-linecap:round;stroke-linejoin:round;stroke-miterlimit:4;stroke-dasharray:none;stroke-opacity:1"
       inkscape:export-xdpi="792.62"
       inkscape:export-ydpi="792.62" />
    <path
       sodipodi:nodetypes="cccccc"
       inkscape:connector-curvature="0"
       id="path5732"
       d="m 110.3642,136.21131 -1.00341,-0.27528 c -0.081,-0.0293 -0.17057,-0.0336 -0.26488,-0.008 -0.36068,0.0967 -0.65305,0.58948 -0.65305,1.10069 0,0.3907 0.17075,0.67908 0.41225,0.7502 l 0.99059,0.26529"
       style="display:inline;opacity:1;fill:#ffffff;fill-opacity:1;fill-rule:nonzero;stroke:#000000;stroke-width:0.10583333;stroke-linecap:round;stroke-linejoin:round;stroke-miterlimit:4;stroke-dasharray:none;stroke-opacity:1"
       inkscape:export-xdpi="792.62"
       inkscape:export-ydpi="792.62" />
    <path
       sodipodi:nodetypes="cccccc"
       inkscape:connector-curvature="0"
       id="path5734"
       d="m 111.66666,135.80549 -0.80702,-0.33027 c -0.15494,-0.0564 -0.32649,-0.0647 -0.50696,-0.016 -0.6903,0.18607 -1.24989,1.13451 -1.24989,2.1184 0,0.75191 0.32683,1.30692 0.78902,1.4438 l 0.78251,0.31104"
       style="display:inline;opacity:1;fill:#ffffff;fill-opacity:1;fill-rule:nonzero;stroke:#000000;stroke-width:0.10583333;stroke-linecap:round;stroke-linejoin:round;stroke-miterlimit:4;stroke-dasharray:none;stroke-opacity:1"
       inkscape:export-xdpi="792.62"
       inkscape:export-ydpi="792.62" />
    <path
       inkscape:connector-curvature="0"
       id="path5746"
       d="m 107.17798,140.10709 c -0.0104,0.36695 0.41218,0.57925 0.70034,0.35183 l 1.7394,-1.62442 c 0.49246,-0.34517 -0.0634,-1.07155 -0.52528,-0.6864 l -1.74136,1.62431 c -0.10581,0.0792 -0.16957,0.20253 -0.1731,0.33468 z"
       style="color:#000000;font-style:normal;font-variant:normal;font-weight:normal;font-stretch:normal;font-size:medium;line-height:normal;font-family:sans-serif;font-variant-ligatures:normal;font-variant-position:normal;font-variant-caps:normal;font-variant-numeric:normal;font-variant-alternates:normal;font-feature-settings:normal;text-indent:0;text-align:start;text-decoration:none;text-decoration-line:none;text-decoration-style:solid;text-decoration-color:#000000;letter-spacing:normal;word-spacing:normal;text-transform:none;writing-mode:lr-tb;direction:ltr;text-orientation:mixed;dominant-baseline:auto;baseline-shift:baseline;text-anchor:start;white-space:normal;shape-padding:0;clip-rule:nonzero;display:inline;overflow:visible;visibility:visible;opacity:1;isolation:auto;mix-blend-mode:normal;color-interpolation:sRGB;color-interpolation-filters:linearRGB;solid-color:#000000;solid-opacity:1;vector-effect:none;fill:#ffffff;fill-opacity:1;fill-rule:evenodd;stroke:#000000;stroke-width:0.10583333;stroke-linecap:round;stroke-linejoin:miter;stroke-miterlimit:4;stroke-dasharray:none;stroke-dashoffset:0;stroke-opacity:1;color-rendering:auto;image-rendering:auto;shape-rendering:auto;text-rendering:auto;enable-background:accumulate"
       sodipodi:nodetypes="cccccc"
       inkscape:export-xdpi="792.62"
       inkscape:export-ydpi="792.62" />
    <path
       style="display:inline;opacity:1;fill:#ffffff;fill-opacity:1;fill-rule:nonzero;stroke:#000000;stroke-width:0.10583333;stroke-linecap:round;stroke-linejoin:round;stroke-miterlimit:4;stroke-dasharray:none;stroke-opacity:1"
       d="m 121.04123,132.77618 -0.78584,-0.22678 c -0.0469,-0.0169 -0.0989,-0.0194 -0.15355,-0.005 -0.20909,0.0558 -0.37857,0.34044 -0.37857,0.63567 0,0.22563 0.099,0.39218 0.23898,0.43325 l 0.77841,0.22101"
       id="path5721"
       inkscape:connector-curvature="0"
       sodipodi:nodetypes="cccccc"
       inkscape:export-xdpi="792.62"
       inkscape:export-ydpi="792.62" />
    <path
       style="display:inline;opacity:1;fill:#ffffff;fill-opacity:1;fill-rule:nonzero;stroke:#000000;stroke-width:0.10583333;stroke-linecap:round;stroke-linejoin:round;stroke-miterlimit:4;stroke-dasharray:none;stroke-opacity:1"
       d="m 122.24544,132.62317 -0.917,-0.2721 c -0.0898,-0.0326 -0.18927,-0.0373 -0.29389,-0.009 -0.40016,0.10746 -0.72455,0.6552 -0.72455,1.22341 0,0.43424 0.18946,0.75477 0.45739,0.83382 l 0.90279,0.26099"
       id="path5723"
       inkscape:connector-curvature="0"
       sodipodi:nodetypes="cccccc"
       inkscape:export-xdpi="792.62"
       inkscape:export-ydpi="792.62" />
    <path
       style="display:inline;opacity:1;fill:#ffffff;fill-opacity:1;fill-rule:nonzero;stroke:#000000;stroke-width:0.10583333;stroke-linecap:round;stroke-linejoin:round;stroke-miterlimit:4;stroke-dasharray:none;stroke-opacity:1"
       d="m 122.69107,133.45698 c 0,0.56821 -0.32439,1.11595 -0.72455,1.2234 -0.40015,0.10745 -0.72454,-0.26605 -0.72454,-0.83426 0,-0.56821 0.32439,-1.11595 0.72454,-1.22341 0.40016,-0.10746 0.72455,0.26605 0.72455,0.83427 z"
       id="ellipse5725"
       inkscape:connector-curvature="0"
       sodipodi:nodetypes="cscsc"
       inkscape:export-xdpi="792.62"
       inkscape:export-ydpi="792.62" />
    <path
       style="color:#000000;font-style:normal;font-variant:normal;font-weight:normal;font-stretch:normal;font-size:medium;line-height:normal;font-family:sans-serif;font-variant-ligatures:normal;font-variant-position:normal;font-variant-caps:normal;font-variant-numeric:normal;font-variant-alternates:normal;font-feature-settings:normal;text-indent:0;text-align:start;text-decoration:none;text-decoration-line:none;text-decoration-style:solid;text-decoration-color:#000000;letter-spacing:normal;word-spacing:normal;text-transform:none;writing-mode:lr-tb;direction:ltr;text-orientation:mixed;dominant-baseline:auto;baseline-shift:baseline;text-anchor:start;white-space:normal;shape-padding:0;clip-rule:nonzero;display:inline;overflow:visible;visibility:visible;opacity:1;isolation:auto;mix-blend-mode:normal;color-interpolation:sRGB;color-interpolation-filters:linearRGB;solid-color:#000000;solid-opacity:1;vector-effect:none;fill:#ffffff;fill-opacity:1;fill-rule:evenodd;stroke:#000000;stroke-width:0.10583333;stroke-linecap:round;stroke-linejoin:miter;stroke-miterlimit:4;stroke-dasharray:none;stroke-dashoffset:0;stroke-opacity:1;color-rendering:auto;image-rendering:auto;shape-rendering:auto;text-rendering:auto;enable-background:accumulate"
       d="m 114.86971,125.17798 a 0.43254327,0.43254327 0 0 0 -0.3125,0.71875 l 6.10352,7.11328 a 0.43254327,0.43254327 0 1 0 0.65625,-0.5625 l -6.10352,-7.11523 a 0.43254327,0.43254327 0 0 0 -0.34375,-0.1543 z"
       id="path5740"
       inkscape:connector-curvature="0"
       inkscape:export-xdpi="792.62"
       inkscape:export-ydpi="792.62" />
    <path
       style="display:inline;opacity:1;fill:#ffffff;fill-opacity:1;fill-rule:nonzero;stroke:#000000;stroke-width:0.10583333;stroke-linecap:round;stroke-linejoin:round;stroke-miterlimit:4;stroke-dasharray:none;stroke-opacity:1"
       d="m 112.89375,124.01575 a 1.2439976,1.2439976 0 0 1 -1.244,1.244 1.2439976,1.2439976 0 0 1 -1.244,-1.244 1.2439976,1.2439976 0 0 1 1.244,-1.244 1.2439976,1.2439976 0 0 1 1.244,1.244 z"
       id="path5697"
       inkscape:connector-curvature="0"
       inkscape:export-xdpi="792.62"
       inkscape:export-ydpi="792.62" />
    <path
       style="display:inline;opacity:1;fill:#ffffff;fill-opacity:1;fill-rule:nonzero;stroke:#000000;stroke-width:0.10583333;stroke-linecap:round;stroke-linejoin:round;stroke-miterlimit:4;stroke-dasharray:none;stroke-opacity:1"
       d="m 113.31634,123.97121 -0.78584,-0.22678 c -0.0469,-0.0169 -0.0989,-0.0194 -0.15355,-0.005 -0.20909,0.0558 -0.37857,0.34044 -0.37857,0.63567 0,0.22563 0.099,0.39218 0.23898,0.43325 l 0.77841,0.22101"
       id="path5708"
       inkscape:connector-curvature="0"
       sodipodi:nodetypes="cccccc"
       inkscape:export-xdpi="792.62"
       inkscape:export-ydpi="792.62" />
    <path
       style="display:inline;opacity:1;fill:#ffffff;fill-opacity:1;fill-rule:nonzero;stroke:#000000;stroke-width:0.10583334;stroke-linecap:round;stroke-linejoin:round;stroke-miterlimit:4;stroke-dasharray:none;stroke-opacity:1"
       d="m 115.10755,123.98256 -1.504,-0.43646 c -0.0898,-0.0326 -0.18927,-0.0374 -0.29389,-0.009 -0.40016,0.10746 -0.72455,0.6552 -0.72455,1.22341 0,0.43424 0.18946,0.75477 0.4574,0.83382 l 1.48978,0.42535"
       id="ellipse5701"
       inkscape:connector-curvature="0"
       sodipodi:nodetypes="cccccc"
       inkscape:export-xdpi="792.62"
       inkscape:export-ydpi="792.62" />
    <path
       style="display:inline;opacity:1;fill:#ffffff;fill-opacity:1;fill-rule:nonzero;stroke:#000000;stroke-width:0.10583334;stroke-linecap:round;stroke-linejoin:round;stroke-miterlimit:4;stroke-dasharray:none;stroke-opacity:1"
       d="m 115.55318,124.81637 a 0.70148185,1.0626632 13.131863 0 1 -0.72454,1.22341 0.70148185,1.0626632 13.131863 0 1 -0.72455,-0.83426 0.70148185,1.0626632 13.131863 0 1 0.72455,-1.22342 0.70148185,1.0626632 13.131863 0 1 0.72454,0.83427 z"
       id="path5699"
       inkscape:connector-curvature="0"
       inkscape:export-xdpi="792.62"
       inkscape:export-ydpi="792.62" />
    <path
       sodipodi:nodetypes="cccccc"
       inkscape:connector-curvature="0"
       id="path5704"
       d="m 116.04386,124.79984 -0.90709,-0.25709 c -0.0469,-0.0169 -0.0989,-0.0194 -0.15355,-0.005 -0.20909,0.0558 -0.37857,0.34044 -0.37857,0.63567 0,0.22563 0.099,0.39218 0.23898,0.43325 l 0.89966,0.25132"
       style="display:inline;opacity:1;fill:#ffffff;fill-opacity:1;fill-rule:nonzero;stroke:#000000;stroke-width:0.10583333;stroke-linecap:round;stroke-linejoin:round;stroke-miterlimit:4;stroke-dasharray:none;stroke-opacity:1"
       inkscape:export-xdpi="792.62"
       inkscape:export-ydpi="792.62" />
    <path
       style="display:inline;opacity:1;fill:#ffffff;fill-opacity:1;fill-rule:nonzero;stroke:#000000;stroke-width:0.10583334;stroke-linecap:round;stroke-linejoin:round;stroke-miterlimit:4;stroke-dasharray:none;stroke-opacity:1"
       d="m 116.2767,125.23307 c 0,0.29524 -0.16949,0.57983 -0.37857,0.63567 -0.20908,0.0558 -0.37857,-0.13824 -0.37857,-0.43348 0,-0.29524 0.16949,-0.57984 0.37857,-0.63567 0.20908,-0.0558 0.37857,0.13824 0.37857,0.43348 z"
       id="ellipse5706"
       inkscape:connector-curvature="0"
       sodipodi:nodetypes="scscs"
       inkscape:export-xdpi="792.62"
       inkscape:export-ydpi="792.62" />
    <path
       sodipodi:nodetypes="cccccc"
       inkscape:connector-curvature="0"
       id="path5710"
       d="m 106.95329,140.00799 -0.78584,-0.22678 c -0.0469,-0.0169 -0.0989,-0.0194 -0.15355,-0.005 -0.20909,0.0558 -0.37857,0.34044 -0.37857,0.63567 0,0.22563 0.099,0.39218 0.23898,0.43325 l 0.77841,0.22101"
       style="display:inline;opacity:1;fill:#ffffff;fill-opacity:1;fill-rule:nonzero;stroke:#000000;stroke-width:0.10583333;stroke-linecap:round;stroke-linejoin:round;stroke-miterlimit:4;stroke-dasharray:none;stroke-opacity:1"
       inkscape:export-xdpi="792.62"
       inkscape:export-ydpi="792.62" />
    <path
       sodipodi:nodetypes="cccccc"
       inkscape:connector-curvature="0"
       id="path5712"
       d="m 108.7445,140.01934 -1.504,-0.43646 c -0.0898,-0.0326 -0.18927,-0.0373 -0.29389,-0.009 -0.40016,0.10746 -0.72455,0.6552 -0.72455,1.22341 0,0.43424 0.18946,0.75477 0.45739,0.83382 l 1.48979,0.42535"
       style="display:inline;opacity:1;fill:#ffffff;fill-opacity:1;fill-rule:nonzero;stroke:#000000;stroke-width:0.10583333;stroke-linecap:round;stroke-linejoin:round;stroke-miterlimit:4;stroke-dasharray:none;stroke-opacity:1"
       inkscape:export-xdpi="792.62"
       inkscape:export-ydpi="792.62" />
    <path
       style="display:inline;opacity:1;fill:#ffffff;fill-opacity:1;fill-rule:nonzero;stroke:#000000;stroke-width:0.10583334;stroke-linecap:round;stroke-linejoin:round;stroke-miterlimit:4;stroke-dasharray:none;stroke-opacity:1"
       d="m 109.19013,140.85313 a 0.70148185,1.0626632 13.131863 0 1 -0.72454,1.22341 0.70148185,1.0626632 13.131863 0 1 -0.72455,-0.83426 0.70148185,1.0626632 13.131863 0 1 0.72455,-1.22342 0.70148185,1.0626632 13.131863 0 1 0.72454,0.83427 z"
       id="ellipse5714"
       inkscape:connector-curvature="0"
       inkscape:export-xdpi="792.62"
       inkscape:export-ydpi="792.62" />
    <path
       style="display:inline;opacity:1;fill:#ffffff;fill-opacity:1;fill-rule:nonzero;stroke:#000000;stroke-width:0.10583333;stroke-linecap:round;stroke-linejoin:round;stroke-miterlimit:4;stroke-dasharray:none;stroke-opacity:1"
       d="m 111.20315,141.27591 -2.42943,-0.69638 c -0.0469,-0.0169 -0.0989,-0.0194 -0.15355,-0.005 -0.20909,0.0558 -0.37857,0.34044 -0.37857,0.63567 0,0.22563 0.099,0.39218 0.23898,0.43325 l 2.422,0.69061"
       id="path5716"
       inkscape:connector-curvature="0"
       sodipodi:nodetypes="cccccc"
       inkscape:export-xdpi="792.62"
       inkscape:export-ydpi="792.62" />
    <path
       style="display:inline;opacity:1;fill:#ffffff;fill-opacity:1;fill-rule:nonzero;stroke:#000000;stroke-width:0.10583334;stroke-linecap:round;stroke-linejoin:round;stroke-miterlimit:4;stroke-dasharray:none;stroke-opacity:1"
       d="m 111.43599,141.70913 c 0,0.29524 -0.16949,0.57985 -0.37857,0.63568 -0.20909,0.0558 -0.37858,-0.13824 -0.37858,-0.43348 0,-0.29524 0.1695,-0.57983 0.37858,-0.63567 0.20908,-0.0558 0.37857,0.13823 0.37857,0.43347 z"
       id="ellipse5718"
       inkscape:connector-curvature="0"
       sodipodi:nodetypes="scscs"
       inkscape:export-xdpi="792.62"
       inkscape:export-ydpi="792.62" />
    <path
       sodipodi:nodetypes="cscsc"
       inkscape:connector-curvature="0"
       id="path5736"
       d="m 112.43539,137.24928 c 0,0.98389 -0.55959,1.93232 -1.24988,2.11838 -0.69027,0.18606 -1.24985,-0.46068 -1.24985,-1.44456 0,-0.98389 0.55958,-1.93233 1.24985,-2.11841 0.69029,-0.18606 1.24988,0.46068 1.24988,1.44459 z"
       style="display:inline;opacity:1;fill:#ffffff;fill-opacity:1;fill-rule:nonzero;stroke:#000000;stroke-width:0.10583333;stroke-linecap:round;stroke-linejoin:round;stroke-miterlimit:4;stroke-dasharray:none;stroke-opacity:1"
       inkscape:export-xdpi="792.62"
       inkscape:export-ydpi="792.62" />
    <path
       style="color:#000000;font-style:normal;font-variant:normal;font-weight:normal;font-stretch:normal;font-size:medium;line-height:normal;font-family:sans-serif;font-variant-ligatures:normal;font-variant-position:normal;font-variant-caps:normal;font-variant-numeric:normal;font-variant-alternates:normal;font-feature-settings:normal;text-indent:0;text-align:start;text-decoration:none;text-decoration-line:none;text-decoration-style:solid;text-decoration-color:#000000;letter-spacing:normal;word-spacing:normal;text-transform:none;writing-mode:lr-tb;direction:ltr;text-orientation:mixed;dominant-baseline:auto;baseline-shift:baseline;text-anchor:start;white-space:normal;shape-padding:0;clip-rule:nonzero;display:inline;overflow:visible;visibility:visible;opacity:1;isolation:auto;mix-blend-mode:normal;color-interpolation:sRGB;color-interpolation-filters:linearRGB;solid-color:#000000;solid-opacity:1;vector-effect:none;fill:#ffffff;fill-opacity:1;fill-rule:evenodd;stroke:#000000;stroke-width:0.10583333;stroke-linecap:round;stroke-linejoin:miter;stroke-miterlimit:4;stroke-dasharray:none;stroke-dashoffset:0;stroke-opacity:1;color-rendering:auto;image-rendering:auto;shape-rendering:auto;text-rendering:auto;enable-background:accumulate"
       d="m 115.09497,125.26911 c -0.15089,-0.0477 -0.36985,-0.0325 -0.43705,0.11075 l -7.1593,14.22586 c -0.19195,0.34012 0.74028,0.46541 0.80832,0.30341 l 7.12637,-14.14841 c 0.0696,-0.15688 -0.0362,-0.39616 -0.33834,-0.49161 z"
       id="path5738"
       inkscape:connector-curvature="0"
       sodipodi:nodetypes="sccccs"
       inkscape:export-xdpi="792.62"
       inkscape:export-ydpi="792.62" />
    <path
       style="display:inline;fill:none;fill-rule:evenodd;stroke:#000000;stroke-width:0.10583333;stroke-linecap:butt;stroke-linejoin:miter;stroke-miterlimit:4;stroke-dasharray:none;stroke-opacity:1"
       d="m 94.346228,124.53136 h 6.858942"
       id="path5770"
       inkscape:connector-curvature="0"
       inkscape:path-effect="#path-effect5772"
       inkscape:original-d="m 94.346228,124.53136 c 2.28646,-1.4e-4 4.57277,-1.4e-4 6.858942,0"
       inkscape:export-xdpi="792.62"
       inkscape:export-ydpi="792.62" />
    <path
       style="display:inline;opacity:1;fill:#ffffff;fill-opacity:1;fill-rule:nonzero;stroke:#000000;stroke-width:0.10583334;stroke-linecap:round;stroke-linejoin:round;stroke-miterlimit:4;stroke-dasharray:none;stroke-opacity:1"
       d="m 96.690628,123.84547 h 0.58541 v 1.37179 h -0.58541 z"
       id="rect5767"
       inkscape:connector-curvature="0"
       sodipodi:nodetypes="ccccc"
       inkscape:export-xdpi="792.62"
       inkscape:export-ydpi="792.62" />
    <text
       xml:space="preserve"
       style="font-style:normal;font-weight:normal;font-size:1.41111112px;line-height:125%;font-family:sans-serif;letter-spacing:0px;word-spacing:0px;display:inline;fill:#000000;fill-opacity:1;stroke:none;stroke-width:0.26458332px;stroke-linecap:butt;stroke-linejoin:miter;stroke-opacity:1"
       x="101.89108"
       y="124.87437"
       id="text5776"
       inkscape:export-xdpi="792.62"
       inkscape:export-ydpi="792.62"><tspan
         sodipodi:role="line"
         id="tspan5774"
         x="101.89108"
         y="124.87437"
         style="font-style:normal;font-variant:normal;font-weight:normal;font-stretch:normal;font-family:'News Cycle';-inkscape-font-specification:'News Cycle';stroke-width:0.26458332px">Rotate</tspan><tspan
         sodipodi:role="line"
         x="101.89108"
         y="126.64458"
         style="font-style:normal;font-variant:normal;font-weight:normal;font-stretch:normal;font-family:'News Cycle';-inkscape-font-specification:'News Cycle';stroke-width:0.26458332px"
         id="tspan5778">Extension</tspan><tspan
         sodipodi:role="line"
         x="101.89108"
         y="128.41479"
         style="font-style:normal;font-variant:normal;font-weight:normal;font-stretch:normal;font-family:'News Cycle';-inkscape-font-specification:'News Cycle';stroke-width:0.26458332px"
         id="tspan5780">Modify angle</tspan><tspan
         sodipodi:role="line"
         x="101.89108"
         y="130.18501"
         style="font-style:normal;font-variant:normal;font-weight:normal;font-stretch:normal;font-family:'News Cycle';-inkscape-font-specification:'News Cycle';stroke-width:0.26458332px"
         id="tspan5782">Bar A</tspan><tspan
         sodipodi:role="line"
         x="101.89108"
         y="131.95523"
         style="font-style:normal;font-variant:normal;font-weight:normal;font-stretch:normal;font-family:'News Cycle';-inkscape-font-specification:'News Cycle';stroke-width:0.26458332px"
         id="tspan5784">Bar B</tspan><tspan
         sodipodi:role="line"
         x="101.89108"
         y="133.72545"
         style="font-style:normal;font-variant:normal;font-weight:normal;font-stretch:normal;font-family:'News Cycle';-inkscape-font-specification:'News Cycle';stroke-width:0.26458332px"
         id="tspan5786">Bar C</tspan><tspan
         sodipodi:role="line"
         x="101.89108"
         y="135.49568"
         style="font-style:normal;font-variant:normal;font-weight:normal;font-stretch:normal;font-family:'News Cycle';-inkscape-font-specification:'News Cycle';stroke-width:0.26458332px"
         id="tspan5788">Bar D</tspan></text>
    <path
       inkscape:original-d="m 94.346228,126.27359 c 2.28646,-1.4e-4 4.57277,-1.4e-4 6.858942,0"
       inkscape:path-effect="#path-effect5858"
       inkscape:connector-curvature="0"
       id="path5800"
       d="m 94.346228,126.27359 h 6.858942"
       style="display:inline;fill:none;fill-rule:evenodd;stroke:#000000;stroke-width:0.10583333;stroke-linecap:butt;stroke-linejoin:miter;stroke-miterlimit:4;stroke-dasharray:none;stroke-opacity:1"
       inkscape:export-xdpi="792.62"
       inkscape:export-ydpi="792.62" />
    <path
       sodipodi:nodetypes="ccccc"
       inkscape:connector-curvature="0"
       id="path5802"
       d="m 94.573948,125.5877 h 0.58541 v 1.37179 h -0.58541 z"
       style="display:inline;opacity:1;fill:#ffffff;fill-opacity:1;fill-rule:nonzero;stroke:#000000;stroke-width:0.10583334;stroke-linecap:round;stroke-linejoin:round;stroke-miterlimit:4;stroke-dasharray:none;stroke-opacity:1"
       inkscape:export-xdpi="792.62"
       inkscape:export-ydpi="792.62" />
    <path
       style="display:inline;fill:none;fill-rule:evenodd;stroke:#000000;stroke-width:0.10583333;stroke-linecap:butt;stroke-linejoin:miter;stroke-miterlimit:4;stroke-dasharray:none;stroke-opacity:1"
       d="m 94.346228,128.01581 h 6.858942"
       id="path5806"
       inkscape:connector-curvature="0"
       inkscape:path-effect="#path-effect5854"
       inkscape:original-d="m 94.346228,128.01581 c 2.28646,-1.4e-4 4.57277,-1.4e-4 6.858942,0"
       inkscape:export-xdpi="792.62"
       inkscape:export-ydpi="792.62" />
    <path
       style="display:inline;opacity:1;fill:#ffffff;fill-opacity:1;fill-rule:nonzero;stroke:#000000;stroke-width:0.10583334;stroke-linecap:round;stroke-linejoin:round;stroke-miterlimit:4;stroke-dasharray:none;stroke-opacity:1"
       d="m 98.807278,127.32992 h 0.58541 v 1.37179 h -0.58541 z"
       id="path5808"
       inkscape:connector-curvature="0"
       sodipodi:nodetypes="ccccc"
       inkscape:export-xdpi="792.62"
       inkscape:export-ydpi="792.62" />
    <path
       inkscape:original-d="m 94.346228,129.75804 c 2.28646,-1.4e-4 4.57277,-1.4e-4 6.858942,0"
       inkscape:path-effect="#path-effect5850"
       inkscape:connector-curvature="0"
       id="path5812"
       d="m 94.346228,129.75804 h 6.858942"
       style="display:inline;fill:none;fill-rule:evenodd;stroke:#000000;stroke-width:0.10583333;stroke-linecap:butt;stroke-linejoin:miter;stroke-miterlimit:4;stroke-dasharray:none;stroke-opacity:1"
       inkscape:export-xdpi="792.62"
       inkscape:export-ydpi="792.62" />
    <path
       sodipodi:nodetypes="ccccc"
       inkscape:connector-curvature="0"
       id="path5814"
       d="m 100.39482,129.07215 h 0.58541 v 1.37179 h -0.58541 z"
       style="display:inline;opacity:1;fill:#ffffff;fill-opacity:1;fill-rule:nonzero;stroke:#000000;stroke-width:0.10583334;stroke-linecap:round;stroke-linejoin:round;stroke-miterlimit:4;stroke-dasharray:none;stroke-opacity:1"
       inkscape:export-xdpi="792.62"
       inkscape:export-ydpi="792.62" />
    <path
       style="display:inline;fill:none;fill-rule:evenodd;stroke:#000000;stroke-width:0.10583333;stroke-linecap:butt;stroke-linejoin:miter;stroke-miterlimit:4;stroke-dasharray:none;stroke-opacity:1"
       d="m 94.346228,131.50027 h 6.858942"
       id="path5818"
       inkscape:connector-curvature="0"
       inkscape:path-effect="#path-effect5846"
       inkscape:original-d="m 94.346228,131.50027 c 2.28646,-1.4e-4 4.57277,-1.4e-4 6.858942,0"
       inkscape:export-xdpi="792.62"
       inkscape:export-ydpi="792.62" />
    <path
       style="display:inline;opacity:1;fill:#ffffff;fill-opacity:1;fill-rule:nonzero;stroke:#000000;stroke-width:0.10583334;stroke-linecap:round;stroke-linejoin:round;stroke-miterlimit:4;stroke-dasharray:none;stroke-opacity:1"
       d="m 100.39482,130.81438 h 0.58541 v 1.37179 h -0.58541 z"
       id="path5820"
       inkscape:connector-curvature="0"
       sodipodi:nodetypes="ccccc"
       inkscape:export-xdpi="792.62"
       inkscape:export-ydpi="792.62" />
    <path
       inkscape:original-d="m 94.346228,133.24249 c 2.28646,-1.4e-4 4.57277,-1.4e-4 6.858942,0"
       inkscape:path-effect="#path-effect5842"
       inkscape:connector-curvature="0"
       id="path5824"
       d="m 94.346228,133.24249 h 6.858942"
       style="display:inline;fill:none;fill-rule:evenodd;stroke:#000000;stroke-width:0.10583333;stroke-linecap:butt;stroke-linejoin:miter;stroke-miterlimit:4;stroke-dasharray:none;stroke-opacity:1"
       inkscape:export-xdpi="792.62"
       inkscape:export-ydpi="792.62" />
    <path
       sodipodi:nodetypes="ccccc"
       inkscape:connector-curvature="0"
       id="path5826"
       d="m 99.336478,132.5566 h 0.58541 v 1.37179 h -0.58541 z"
       style="display:inline;opacity:1;fill:#ffffff;fill-opacity:1;fill-rule:nonzero;stroke:#000000;stroke-width:0.10583334;stroke-linecap:round;stroke-linejoin:round;stroke-miterlimit:4;stroke-dasharray:none;stroke-opacity:1"
       inkscape:export-xdpi="792.62"
       inkscape:export-ydpi="792.62" />
    <path
       style="display:inline;fill:none;fill-rule:evenodd;stroke:#000000;stroke-width:0.10583333;stroke-linecap:butt;stroke-linejoin:miter;stroke-miterlimit:4;stroke-dasharray:none;stroke-opacity:1"
       d="m 94.346228,134.98472 h 6.858942"
       id="path5830"
       inkscape:connector-curvature="0"
       inkscape:path-effect="#path-effect5838"
       inkscape:original-d="m 94.346228,134.98472 c 2.28646,-1.4e-4 4.57277,-1.4e-4 6.858942,0"
       inkscape:export-xdpi="792.62"
       inkscape:export-ydpi="792.62" />
    <path
       style="display:inline;opacity:1;fill:#ffffff;fill-opacity:1;fill-rule:nonzero;stroke:#000000;stroke-width:0.10583334;stroke-linecap:round;stroke-linejoin:round;stroke-miterlimit:4;stroke-dasharray:none;stroke-opacity:1"
       d="m 94.573948,134.29883 h 0.58541 v 1.37179 h -0.58541 z"
       id="path5832"
       inkscape:connector-curvature="0"
       sodipodi:nodetypes="ccccc"
       inkscape:export-xdpi="792.62"
       inkscape:export-ydpi="792.62" />
  </g>
</svg>
